<svg id="Isolation_Mode" data-name="Isolation Mode" 
    xmlns="http://www.w3.org/2000/svg" viewBox="0 0 343.8 274.62">

    <path d="M1279.51,1613.94a28.35,28.35,0,0,0-19.75-8.72c-15.56-.48-22.49,13.33-28.07,24.41-.81,1.59-1.73,3.68-2.67,6-2.25,5.71-4.53,13-5.25,18.54a15.54,15.54,0,0,0,.15,6.25l.67,2.12,2,.92a7.28,7.28,0,0,0,1.65.5,13.63,13.63,0,0,0,2.31.18,30.16,30.16,0,0,0,5.66-.64,75.09,75.09,0,0,0,10-2.82c3.92-1.38,8-3.06,11.76-4.84,1.2-.58,2.41-1.14,3.61-1.67l2.12-1c5.68-2.53,11.22-5,15.37-8.33s7-7.54,7.14-13.56A24.2,24.2,0,0,0,1279.51,1613.94Zm-3.26,17.11c-.17,4.94-4.29,7.6-16.58,13.07-1.92.85-4,1.77-6,2.73a86.76,86.76,0,0,1-19.8,7,88,88,0,0,1,6.71-19.67c6.56-13,10.84-18.93,18.4-18.93h.45a18.29,18.29,0,0,1,12.76,5.57,14.36,14.36,0,0,1,4,9.83C1276.26,1630.76,1276.25,1630.91,1276.25,1631.05Z" transform="translate(-1087.62 -1597.05)"/>
    <path d="M1233.36,1654.21c-.37-5.51-2.32-12.61-4.34-18.54a101.66,101.66,0,0,0-4-10.35c-6.38-13.25-13.6-28.27-31.5-28.27-17.39,0-31.55,12.78-31.55,28.5,0,13.65,12.24,19.36,25.16,25.38l1.29.62c1.76.83,3.53,1.67,5.29,2.54l.25.12c3.86,1.91,7.67,3.59,11.31,5l1,.39h0c6.87,2.6,13.06,4.23,17.67,4.59l3,0,.27,0a9.36,9.36,0,0,0,1.12-.18,6.44,6.44,0,0,0,3.18-1.59l.53-.49.37-.62C1233.31,1659.69,1233.56,1657.18,1233.36,1654.21Zm-40.69-11.7-1.32-.62c-14.57-6.8-19.42-10.11-19.42-16.34,0-10.2,9.67-18.5,21.55-18.5,10,0,14.82,6.66,22.49,22.6a94.92,94.92,0,0,1,7.4,24.43c-5-.69-13.91-3.33-25.27-9C1196.28,1644.23,1194.47,1643.37,1192.67,1642.51Z" transform="translate(-1087.62 -1597.05)"/>
    <path d="M1306,1708.75l-1-.49c-7.75-3.62-11.6-5.79-13-8.32h-55.72v10h72.27Zm0,0-1-.49c-7.75-3.62-11.6-5.79-13-8.32h-55.72v10h72.27Zm47.55-54.54h-210.4l-.27,0a5,5,0,0,0,.21,10h207.46v27.86a7.14,7.14,0,0,1,4.11-1.18h.32a12.79,12.79,0,0,1,5.57,1.45v-31.14A7,7,0,0,0,1353.56,1654.21Zm-48.58,54c-7.75-3.62-11.6-5.79-13-8.32H1097.62v-35.73h27.11a5,5,0,0,0,.21-10l-.27,0h-30.05a7,7,0,0,0-7,7v41.73a7,7,0,0,0,7,7h213.89l-2.5-1.19Zm49.91,1.55a6.83,6.83,0,0,0,3-1.36C1357,1708.87,1356,1709.32,1354.89,1709.81Zm-33.8-9.87c.16.31.31.63.47,1a63.24,63.24,0,0,1,3.38,9h14.84a53.22,53.22,0,0,1,2.4-5.69c.43-.85.84-1.64,1.23-2.39s.7-1.32,1-1.92Zm-15.08,8.81-1-.49c-7.75-3.62-11.6-5.79-13-8.32h-55.72v10h72.27Zm0,0-1-.49c-7.75-3.62-11.6-5.79-13-8.32h-55.72v10h72.27Zm0,0-1-.49c-7.75-3.62-11.6-5.79-13-8.32h-55.72v10h72.27Z" transform="translate(-1087.62 -1597.05)"/>
    <path d="M1308.51,1709.94l-2.5-1.19-1-.49c-7.75-3.62-11.6-5.79-13-8.32H1104.77v149.62a9,9,0,0,0,9,9h135.06v-10H1114.77V1709.94Zm33.67-5.69c.43-.85.84-1.64,1.23-2.39v-1.92h-22.32c.16.31.31.63.47,1a63.24,63.24,0,0,1,3.38,9h8.47v51.32h3.09v97.06a9,9,0,0,0,6.91-8.76V1714.8a57,57,0,0,1-5.66,1.77c.49-2,1.2-4.32,2-6.63A53.22,53.22,0,0,1,1342.18,1704.25Zm-35.41,144.31v10h10v-10Z" transform="translate(-1087.62 -1597.05)"/>
    <rect x="108.6" y="62.16" width="10" height="194.35"/>
    <polygon points="158.62 154.21 158.62 256.51 148.62 256.51 148.62 251.51 151.21 251.51 151.21 164.21 148.62 164.21 148.62 154.21 158.62 154.21"/>
    <rect x="148.62" y="62.16" width="10" height="68.08"/>
    <path d="M1333.25,1699.74c0,.07-.07.13-.1.2h11.29c2.33-4.17,4.18-6.6,6.12-7.87v-10.72C1341.45,1683.46,1337,1692.37,1333.25,1699.74Zm0,0c0,.07-.07.13-.1.2h11.29c2.33-4.17,4.18-6.6,6.12-7.87v-10.72C1341.45,1683.46,1337,1692.37,1333.25,1699.74Zm37.62-12a22,22,0,0,0-10.31-6.1,22.59,22.59,0,0,0-5.26-.78,18.81,18.81,0,0,0-4.74.45c-9.11,2.11-13.6,11-17.31,18.39,0,.07-.07.13-.1.2l-.63,1.32a82.84,82.84,0,0,0-3.28,8.68,53,53,0,0,0-1.84,7.35,14.61,14.61,0,0,0,0,6.32l.68,2.12,2,.92a6.77,6.77,0,0,0,1.8.5,11.74,11.74,0,0,0,1.5.11h.16a20.62,20.62,0,0,0,2.93-.24,44.16,44.16,0,0,0,6.91-1.68c1.06-.33,2.1-.69,3.09-1,4-1.45,7.23-2.94,8-3.31,1.44-.69,2.94-1.37,4.23-1.94s2.58-1.15,3.85-1.75a38.49,38.49,0,0,0,7.93-4.69,14.11,14.11,0,0,0,5.7-10.95A19.26,19.26,0,0,0,1370.87,1687.78Zm-4.65,13.55c-.08,2.44-1.81,4-8.35,7.12-.89.42-1.89.87-3,1.36l-.22.1c-1.35.59-2.93,1.3-4.47,2-2.5,1.18-4.76,2.11-6.79,2.85a57,57,0,0,1-5.66,1.77c.49-2,1.2-4.32,2-6.63a53.22,53.22,0,0,1,2.4-5.69c.43-.85.84-1.64,1.23-2.39s.7-1.32,1-1.92c2.33-4.17,4.18-6.6,6.12-7.87a7.14,7.14,0,0,1,4.11-1.18h.32a12.79,12.79,0,0,1,5.57,1.45,11.55,11.55,0,0,1,3,2.28,9.35,9.35,0,0,1,2.64,6.41Zm-33-1.59c0,.07-.07.13-.1.2h11.29c2.33-4.17,4.18-6.6,6.12-7.87v-10.72C1341.45,1683.46,1337,1692.37,1333.25,1699.74Zm0,0c0,.07-.07.13-.1.2h11.29c2.33-4.17,4.18-6.6,6.12-7.87v-10.72C1341.45,1683.46,1337,1692.37,1333.25,1699.74Z" transform="translate(-1087.62 -1597.05)"/>
    <path d="M1336.82,1717.29a49.77,49.77,0,0,0-1.47-7.35c-.85-3.16-1.9-6.23-2.83-8.68q-.26-.71-.51-1.32c-.61-1.58-1.13-2.77-1.43-3.39-4.66-9.68-10.46-21.72-24.56-21.72-13.63,0-24.73,10.07-24.73,22.46a17.28,17.28,0,0,0,.2,2.65,15.65,15.65,0,0,0,6.13,10c3.56,2.91,8.26,5.11,13.08,7.35h0l1,.48c1.29.61,2.59,1.23,3.88,1.86,1.93,1,3.86,1.85,5.74,2.65s3.69,1.51,5.44,2.14a49.21,49.21,0,0,0,11.74,2.85h2.39l.26,0c.26,0,.51-.06.75-.11a6.58,6.58,0,0,0,1.5-.45,5.42,5.42,0,0,0,1.69-1.08l.53-.49.37-.63a5.38,5.38,0,0,0,.5-1.14,8,8,0,0,0,.27-1.07A18,18,0,0,0,1336.82,1717.29Zm-30.81-8.54-1-.49c-7.75-3.62-11.6-5.79-13-8.32a5.3,5.3,0,0,1-.67-2.65c0-6.87,6.61-12.46,14.73-12.46,6.54,0,9.9,4.46,15.07,15.11.16.31.31.63.47,1a63.24,63.24,0,0,1,3.38,9,70.05,70.05,0,0,1,1.73,7,74.18,74.18,0,0,1-16.65-6.23l-1.51-.73Z" transform="translate(-1087.62 -1597.05)"/>
    <path d="M1328.51,1727.28a49.21,49.21,0,0,1-11.74-2.85v2.86h11.74Zm0,0a49.21,49.21,0,0,1-11.74-2.85v2.86h11.74Zm0,0a49.21,49.21,0,0,1-11.74-2.85v2.86h11.74Zm0,0a49.21,49.21,0,0,1-11.74-2.85v2.86h11.74Zm0,0a49.21,49.21,0,0,1-11.74-2.85v2.86h11.74Zm95.91-10H1233.09a7,7,0,0,0-7,7v30a7,7,0,0,0,7,7h191.33a7,7,0,0,0,7-7v-30A7,7,0,0,0,1424.42,1717.29Zm-3,34H1236.09v-24h185.33Zm-92.91-24a49.21,49.21,0,0,1-11.74-2.85v2.86h11.74Zm0,0a49.21,49.21,0,0,1-11.74-2.85v2.86h11.74Zm0,0a49.21,49.21,0,0,1-11.74-2.85v2.86h11.74Zm0,0a49.21,49.21,0,0,1-11.74-2.85v2.86h11.74Zm0,0a49.21,49.21,0,0,1-11.74-2.85v2.86h11.74Z" transform="translate(-1087.62 -1597.05)"/>
    <path d="M1316.77,1751.26v10h16.64v-10Zm0,0v10h16.64v-10Zm0,0v10h16.64v-10Zm0,0v10h16.64v-10Zm-77.94,0v111.41a9,9,0,0,0,9,9h161.86a9,9,0,0,0,9-9v-40.11a5,5,0,0,0-10,.72v38.39H1248.83V1761.26h159.86v38.39a5,5,0,0,0,10,.72v-49.11Zm77.94,0v10h16.64v-10Zm0,0v10h16.64v-10Zm0,0v10h16.64v-10Zm0,0v10h16.64v-10Z" transform="translate(-1087.62 -1597.05)"/>
    <rect x="219.15" y="125.24" width="10" height="144.38"/>
    <rect x="248.88" y="125.24" width="10" height="144.38"/>
    <path class="cls-1" d="M1129.26,1659.21a5,5,0,0,1-4.53,5,4.35,4.35,0,0,1-1,0,5,5,0,0,1-.21-10l.27,0,.45,0,.45,0,.27,0A5,5,0,0,1,1129.26,1659.21Z" transform="translate(-1087.62 -1597.05)"/>
    <path class="cls-1" d="M1148.64,1659.21a5,5,0,0,1-4.52,5,4.35,4.35,0,0,1-1,0,5,5,0,0,1-.21-10l.27,0,.45,0a3.44,3.44,0,0,1,.46,0l.27,0A5,5,0,0,1,1148.64,1659.21Z" transform="translate(-1087.62 -1597.05)"/>
</svg>